<?xml version="1.0" encoding="utf-8"?>
<!-- Generator: Adobe Illustrator 19.0.0, SVG Export Plug-In . SVG Version: 6.00 Build 0)  -->
<svg version="1.1" id="Layer_1" xmlns="http://www.w3.org/2000/svg" xmlns:xlink="http://www.w3.org/1999/xlink" x="0px" y="0px"
	 viewBox="0 0 652 141.3" style="enable-background:new 0 0 652 141.3;" xml:space="preserve">
<style type="text/css">
	.st0{fill:#004A97;}
	.st1{fill:#40B4E5;}
	.st2{fill:#0082CA;}
	.st3{fill:#8DB8E9;}
	.st4{fill:#B1CCEF;}
	.st5{fill:#D4E2F6;}
</style>
<g>
	<g>
		<path class="st0" d="M201,89.8l4.4-4.3c0.5-0.5,1.2-0.5,1.7,0c0.8,0.8,1.6,1.4,3.3,1.4c1.8,0,3.8-1.7,3.8-4.9V51.5
			c0-0.6,0.5-1.2,1.2-1.2h7.9c0.7,0,1.2,0.6,1.2,1.2V82c0,9-6.3,14.2-13.9,14.2c-5.6,0-8.7-3.4-9.8-4.7
			C200.6,90.9,200.6,90.3,201,89.8z"/>
		<path class="st0" d="M232.2,89.4l3-5.4c0.5-0.8,1.7-0.7,2.2-0.4c0.3,0.1,4.9,3.6,9.2,3.6c2.6,0,4.5-1.6,4.5-3.9
			c0-2.7-2.3-4.8-6.7-6.5c-5.6-2.2-12.6-6.5-12.6-14.3c0-6.4,5-12.9,15-12.9c6.7,0,11.9,3.4,13.9,4.9c0.8,0.5,0.6,1.6,0.4,2.1
			l-3.3,5c-0.5,0.7-1.6,1.3-2.2,0.8c-0.6-0.3-5.3-3.9-9.3-3.9c-2.3,0-4.1,1.6-4.1,3.3c0,2.4,1.9,4.2,7.1,6.3c5,2,13.1,6,13.1,14.8
			c0,6.7-5.8,13.4-15.3,13.4c-8.4,0-13.1-3.5-14.6-5C231.9,90.6,231.7,90.3,232.2,89.4z"/>
		<path class="st0" d="M270.3,51.5c0-0.6,0.5-1.2,1.2-1.2h26.8c0.7,0,1.2,0.6,1.2,1.2v7.1c0,0.6-0.5,1.2-1.2,1.2h-17.9v9.3h14.8
			c0.6,0,1.2,0.6,1.2,1.2v7.1c0,0.6-0.6,1.2-1.2,1.2h-14.8v15.7c0,0.6-0.6,1.2-1.2,1.2h-7.6c-0.7,0-1.2-0.6-1.2-1.2V51.5z"/>
		<path class="st0" d="M322,51.5c0-0.6,0.5-1.2,1.2-1.2h25.5c0.7,0,1.2,0.6,1.2,1.2v1.9c0,0.6-0.5,1.2-1.2,1.2H327v17.7h18.6
			c0.6,0,1.2,0.6,1.2,1.2v1.9c0,0.6-0.6,1.2-1.2,1.2H327v17.7c0,0.6-0.6,1.2-1.2,1.2h-2.5c-0.7,0-1.2-0.6-1.2-1.2V51.5z"/>
		<path class="st0" d="M358.9,51.5c0-0.6,0.6-1.2,1.2-1.2h2.6c0.6,0,1.2,0.6,1.2,1.2v42.8c0,0.6-0.6,1.2-1.2,1.2h-2.6
			c-0.6,0-1.2-0.6-1.2-1.2V51.5z"/>
		<path class="st0" d="M377.1,50.7c0-0.6,0.6-1.2,1.2-1.2h1.6L409.2,86c0.1,0,0.1,0,0.1,0V51.5c0-0.6,0.5-1.2,1.2-1.2h2.3
			c0.6,0,1.2,0.6,1.2,1.2V95c0,0.6-0.6,1.2-1.2,1.2h-1.2l-29.7-37.1h-0.1v35.2c0,0.6-0.5,1.2-1.2,1.2h-2.3c-0.6,0-1.2-0.6-1.2-1.2
			V50.7z"/>
		<path class="st0" d="M421,93.9l19.7-43.6c0.2-0.4,0.5-0.7,1.1-0.7h0.6c0.6,0,0.9,0.3,1.1,0.7l19.5,43.6c0.4,0.8-0.1,1.7-1.1,1.7
			h-2.6c-0.6,0-1-0.4-1.1-0.7l-4.8-10.7h-23l-4.7,10.7c-0.1,0.3-0.5,0.7-1.1,0.7h-2.6C421.1,95.5,420.6,94.7,421,93.9z M451.7,80.1
			c-3.2-7.1-6.3-14.2-9.5-21.2h-0.5l-9.5,21.2H451.7z"/>
		<path class="st0" d="M470.1,50.7c0-0.6,0.6-1.2,1.2-1.2h1.6L502.2,86c0.1,0,0.1,0,0.1,0V51.5c0-0.6,0.5-1.2,1.2-1.2h2.3
			c0.6,0,1.2,0.6,1.2,1.2V95c0,0.6-0.6,1.2-1.2,1.2h-1.2l-29.7-37.1h-0.1v35.2c0,0.6-0.5,1.2-1.2,1.2h-2.3c-0.6,0-1.2-0.6-1.2-1.2
			V50.7z"/>
		<path class="st0" d="M540.3,49.6c6.5,0,11.3,2.3,15.7,6c0.5,0.5,0.6,1.3,0.1,1.8l-1.7,1.7c-0.5,0.6-1,0.6-1.7-0.1
			c-3.4-2.9-8-4.9-12.4-4.9c-10.2,0-18.1,8.6-18.1,18.6c0,10,7.8,18.6,18.1,18.6c5.6,0,8.9-2.3,12.4-4.9c0.6-0.5,1.2-0.5,1.6-0.2
			l1.9,1.7c0.5,0.4,0.4,1.3-0.1,1.7c-4.4,4.3-10,6.3-15.7,6.3c-12.9,0-23.4-10.3-23.4-23.2C516.9,60,527.3,49.6,540.3,49.6z"/>
		<path class="st0" d="M566,51.5c0-0.6,0.6-1.2,1.2-1.2h2.6c0.6,0,1.2,0.6,1.2,1.2v42.8c0,0.6-0.6,1.2-1.2,1.2h-2.6
			c-0.6,0-1.2-0.6-1.2-1.2V51.5z"/>
		<path class="st0" d="M578,93.9l19.7-43.6c0.2-0.4,0.5-0.7,1.1-0.7h0.6c0.6,0,0.9,0.3,1.1,0.7l19.5,43.6c0.4,0.8-0.1,1.7-1.1,1.7
			h-2.6c-0.6,0-1-0.4-1.1-0.7l-4.8-10.7h-23l-4.7,10.7c-0.1,0.3-0.5,0.7-1.1,0.7h-2.6C578.1,95.5,577.6,94.7,578,93.9z M608.8,80.1
			c-3.2-7.1-6.3-14.2-9.5-21.2h-0.5l-9.5,21.2H608.8z"/>
		<path class="st0" d="M627.1,51.5c0-0.6,0.5-1.2,1.2-1.2h2.5c0.6,0,1.2,0.6,1.2,1.2v39.7h18.6c0.7,0,1.2,0.6,1.2,1.2v1.9
			c0,0.6-0.5,1.2-1.2,1.2h-22.4c-0.7,0-1.2-0.6-1.2-1.2V51.5z"/>
	</g>
	<path class="st1" d="M93.2,6.6C75.5-1.9,57-2.5,43.2,6.8c-7.1,4.8-12.2,11.7-15.3,20c7.6,0.7,16.2,3.2,25.3,7.2
		C62.6,20.5,76.7,10.6,93.2,6.6z"/>
	<g>
		<path class="st0" d="M89.7,138.3C89.7,138.3,89.7,138.4,89.7,138.3c-0.4-0.1-0.8-0.2-1.3-0.4C88.8,138.1,89.2,138.2,89.7,138.3z"
			/>
		<path class="st0" d="M109.3,4.6c-5.6,0-10.9,0.7-16.1,1.9c-16.5,4-30.6,13.9-40,27.4c11.2,5,23.2,12.3,34.6,21.8
			c33.4,27.5,50.2,62.4,37.4,77.8c-2.9,3.5-7,5.7-12,6.7c-3.7,0.7-7.9,0.8-12.5,0.3c-3.6-0.4-7.2-1.1-10.9-2.2
			c6.2,1.9,12.7,2.9,19.5,2.9c37.7,0,68.3-30.6,68.3-68.3C177.6,35.2,147,4.6,109.3,4.6z"/>
	</g>
	<path class="st2" d="M130.9,40.2c-10.4-15.4-23.9-26.9-37.7-33.6c-16.5,4-30.6,13.9-40,27.4C45.5,45.1,41,58.5,41,72.9
		c0,26.9,15.5,50.1,38,61.2c3.5,1.7,7.1,3.1,10.6,4.2c3.8,1.1,7.5,1.8,11,2.2c4.3,0.4,8.5,0.4,12.5-0.3c5.8-0.9,11.2-3,16.1-6.3
		C153.9,117.3,154.7,75.3,130.9,40.2z"/>
	<path class="st3" d="M53.2,34c-9.1-4-17.8-6.5-25.3-7.2c-7.7,20.4-3.2,48.9,13.7,73.9C51.9,116,65.2,127.5,79,134.2
		c-10.6-5.2-19.6-13.1-26.2-22.8c6.6,9.7,15.6,17.5,26.2,22.8c3.5,1.7,7.1,3.1,10.6,4.2c3.8,1.1,7.5,1.8,11,2.2
		c4.3,0.4,8.5,0.4,12.5-0.3c5-1,9.2-3.2,12-6.7c12.7-15.4-4-50.3-37.4-77.8C76.3,46.3,64.4,39,53.2,34 M48.8,104.6
		c0.3,0.6,0.6,1.1,0.9,1.7C49.4,105.8,49.1,105.2,48.8,104.6z"/>
	<path class="st4" d="M79,134.2C79,134.2,79,134.2,79,134.2C56.5,123,41,99.8,41,72.9c0-14.5,4.5-27.9,12.2-38.9
		c-9.1-4-17.8-6.5-25.3-7.2v0c-1.6-0.2-3.2-0.2-4.7-0.2c-8.2,0-14.8,2.3-18.9,7.3c-12.7,15.4,4,50.3,37.4,77.8
		c15.7,12.9,32.2,21.9,46.7,26.3C85.1,136.9,82,135.7,79,134.2z"/>
	<g>
		<path class="st5" d="M23.2,26.6c-8.2,0-14.8,2.3-18.9,7.3c-12.7,15.4,4,50.3,37.4,77.8c15.7,12.9,32.2,21.9,46.7,26.3
			c-3.2-1-6.3-2.3-9.3-3.8c-13.8-6.7-27.1-18.2-37.5-33.5c-16.9-25-21.4-53.5-13.7-73.9C26.2,26.6,24.7,26.6,23.2,26.6"/>
	</g>
</g>
</svg>
